[
  {
    "case_index": 0,
    "case_number": 0,
    "case_action": false,
    "case_description": "🏁 Commencez votre aventure en faisant /jeu-de-l'oie dé !",
    "case_image": false
  },
  {
    "case_index": 1,
    "case_number": 0,
    "case_action": false,
    "case_description": false,
    "case_image": false
  },
  {
    "case_index": 2,
    "case_number": 2,
    "case_action": false,
    "case_description": false,
    "case_image": false
  },
  {
    "case_index": 3,
    "case_number": 3,
    "case_action": false,
    "case_description": false,
    "case_image": false
  },
  {
    "case_index": 4,
    "case_number": 4,
    "case_action": "Passe un tour.",
    "case_description": false,
    "case_image": false,
    "case_malus_bonus_type": "cooldown",
    "case_malus_bonus": 2
  },
  {
    "case_index": 5,
    "case_number": 5,
    "case_action": false,
    "case_description": false,
    "case_image": false
  },
  {
    "case_index": 6,
    "case_number": 6,
    "case_action": "Bonus +2 à ton dé de manière permanente.",
    "case_description": false,
    "case_image": false,
    "case_malus_bonus_type": "karma",
    "case_malus_bonus": 2
  },
  {
    "case_index": 7,
    "case_number": 7,
    "case_action": false,
    "case_description": false,
    "case_image": false
  },
  {
    "case_index": 8,
    "case_number": 16,
    "case_action": "Avance à la case 16.",
    "case_description": false,
    "case_image": false
  },
  {
    "case_index": 9,
    "case_number": 9,
    "case_action": false,
    "case_description": false,
    "case_image": false
  },
  {
    "case_index": 10,
    "case_number": 10,
    "case_action": false,
    "case_description": false,
    "case_image": false
  },
  {
    "case_index": 11,
    "case_number": 11,
    "case_action": "Fais 5 ou 6 au prochain lancé pour avancer.",
    "case_description": false,
    "case_image": false,
    "case_malus_bonus_type": "piege",
    "case_malus_bonus": [5, 6]
  },
  {
    "case_index": 12,
    "case_number": 12,
    "case_action": "Malus -1 à ton dé de manière permanente.",
    "case_description": false,
    "case_image": false,
    "case_malus_bonus_type": "karma",
    "case_malus_bonus": -1
  },
  {
    "case_index": 13,
    "case_number": 13,
    "case_action": false,
    "case_description": false,
    "case_image": false
  },
  {
    "case_index": 14,
    "case_number": 22,
    "case_action": "Avance à la case 22.",
    "case_description": false,
    "case_image": false
  },
  {
    "case_index": 15,
    "case_number": 15,
    "case_action": false,
    "case_description": false,
    "case_image": false
  },
  {
    "case_index": 16,
    "case_number": 16,
    "case_action": false,
    "case_description": false,
    "case_image": false
  },
  {
    "case_index": 17,
    "case_number": 17,
    "case_action": false,
    "case_description": false,
    "case_image": false
  },
  {
    "case_index": 18,
    "case_number": 7,
    "case_action": "Recule à la case 7.",
    "case_description": false,
    "case_image": false
  },
  {
    "case_index": 19,
    "case_number": 19,
    "case_action": false,
    "case_description": false,
    "case_image": false
  },
  {
    "case_index": 20,
    "case_number": 14,
    "case_action": "Recule à la case 14.",
    "case_description": false,
    "case_image": false
  },
  {
    "case_index": 21,
    "case_number": 21,
    "case_action": "Suppression malus / bonus de votre dé.",
    "case_description": false,
    "case_image": false,
    "case_malus_bonus_type": "karma",
    "case_malus_bonus": 0
  },
  {
    "case_index": 22,
    "case_number": 22,
    "case_action": false,
    "case_description": false,
    "case_image": false
  },
  {
    "case_index": 23,
    "case_number": 23,
    "case_action": "Passe deux tours.",
    "case_description": false,
    "case_image": false,
    "case_malus_bonus_type": "cooldown",
    "case_malus_bonus": 3
  },
  {
    "case_index": 24,
    "case_number": 24,
    "case_action": false,
    "case_description": false,
    "case_image": false
  },
  {
    "case_index": 25,
    "case_number": 25,
    "case_action": "Rejoue.",
    "case_description": false,
    "case_image": false,
    "case_malus_bonus_type": "cooldown",
    "case_malus_bonus": 0
  },
  {
    "case_index": 26,
    "case_number": 26,
    "case_action": "Gagnez le pierre-feuille-ciseaux.",
    "case_description": "En cas de victoire avancez de 3 cases. En cas de défaite reculez de 3 cases. En cas d'égalité restez sur votre case.",
    "case_image": false,
    "case_malus_bonus_type": "chifoumi",
    "case_malus_bonus": 3
  },
  {
    "case_index": 27,
    "case_number": 27,
    "case_action": false,
    "case_description": false,
    "case_image": false
  },
  {
    "case_index": 28,
    "case_number": 39,
    "case_action": "Avance à la case 39.",
    "case_description": false,
    "case_image": false
  },
  {
    "case_index": 29,
    "case_number": 29,
    "case_action": false,
    "case_description": false,
    "case_image": false
  },
  {
    "case_index": 30,
    "case_number": 22,
    "case_action": "Recule à la case 22.",
    "case_description": false,
    "case_image": false
  },
  {
    "case_index": 31,
    "case_number": 31,
    "case_action": false,
    "case_description": false,
    "case_image": false
  },
  {
    "case_index": 32,
    "case_number": 32,
    "case_action": "Rejoue.",
    "case_description": false,
    "case_image": false,
    "case_malus_bonus_type": "cooldown",
    "case_malus_bonus": 0
  },
  {
    "case_index": 33,
    "case_number": 33,
    "case_action": "Passe deux tours.",
    "case_description": false,
    "case_image": false,
    "case_malus_bonus_type": "cooldown",
    "case_malus_bonus": 3
  },
  {
    "case_index": 34,
    "case_number": 34,
    "case_action": false,
    "case_description": false,
    "case_image": false
  },
  {
    "case_index": 35,
    "case_number": 35,
    "case_action": false,
    "case_description": false,
    "case_image": false
  },
  {
    "case_index": 36,
    "case_number": 36,
    "case_action": "Fais un nombre pair au prochain lancé pour avancer.",
    "case_description": false,
    "case_image": false,
    "case_malus_bonus_type": "piege",
    "case_malus_bonus": [2, 4, 6]
  },
  {
    "case_index": 37,
    "case_number": 44,
    "case_action": "Avance à la case 44.",
    "case_description": false,
    "case_image": false
  },
  {
    "case_index": 38,
    "case_number": 38,
    "case_action": false,
    "case_description": false,
    "case_image": false
  },
  {
    "case_index": 39,
    "case_number": 39,
    "case_action": false,
    "case_description": false,
    "case_image": false
  },
  {
    "case_index": 40,
    "case_number": 40,
    "case_action": "Bonus +1 à ton dé de manière permanente.",
    "case_description": false,
    "case_image": false,
    "case_malus_bonus_type": "karma",
    "case_malus_bonus": 1
  },
  {
    "case_index": 41,
    "case_number": 41,
    "case_action": false,
    "case_description": false,
    "case_image": false
  },
  {
    "case_index": 42,
    "case_number": 38,
    "case_action": "Recule à la case 38.",
    "case_description": false,
    "case_image": false
  },
  {
    "case_index": 43,
    "case_number": 43,
    "case_action": false,
    "case_description": false,
    "case_image": false
  },
  {
    "case_index": 44,
    "case_number": 48,
    "case_action": "Avance à la case 48.",
    "case_description": false,
    "case_image": false
  },
  {
    "case_index": 45,
    "case_number": 45,
    "case_action": false,
    "case_description": false,
    "case_image": false
  },
  {
    "case_index": 46,
    "case_number": 46,
    "case_action": "Ne fais pas 5 ou 6 au prochain lancé pour avancer.",
    "case_description": false,
    "case_image": false,
    "case_malus_bonus_type": "piege",
    "case_malus_bonus": [1, 2, 3, 4]
  },
  {
    "case_index": 47,
    "case_number": 47,
    "case_action": false,
    "case_description": false,
    "case_image": false
  },
  {
    "case_index": 48,
    "case_number": 48,
    "case_action": false,
    "case_description": false,
    "case_image": false
  },
  {
    "case_index": 49,
    "case_number": 49,
    "case_action": "Passe trois tour.",
    "case_description": false,
    "case_image": false,
    "case_malus_bonus_type": "cooldown",
    "case_malus_bonus": 4
  },
  {
    "case_index": 50,
    "case_number": 50,
    "case_action": false,
    "case_description": false,
    "case_image": false
  },
  {
    "case_index": 51,
    "case_number": 51,
    "case_action": "Passe deux tours.",
    "case_description": false,
    "case_image": false,
    "case_malus_bonus_type": "cooldown",
    "case_malus_bonus": 3
  },
  {
    "case_index": 52,
    "case_number": 52,
    "case_action": false,
    "case_description": false,
    "case_image": false
  },
  {
    "case_index": 53,
    "case_number": 60,
    "case_action": "Avance à la case 60.",
    "case_description": false,
    "case_image": false
  },
  {
    "case_index": 54,
    "case_number": 54,
    "case_action": false,
    "case_description": false,
    "case_image": false
  },
  {
    "case_index": 55,
    "case_number": 55,
    "case_action": false,
    "case_description": false,
    "case_image": false
  },
  {
    "case_index": 56,
    "case_number": 0,
    "case_action": "Retourne à la case départ.",
    "case_description": false,
    "case_image": false
  },
  {
    "case_index": 57,
    "case_number": 57,
    "case_action": false,
    "case_description": false,
    "case_image": false
  },
  {
    "case_index": 58,
    "case_number": 58,
    "case_action": "Passe deux tours.",
    "case_description": false,
    "case_image": false,
    "case_malus_bonus_type": "cooldown",
    "case_malus_bonus": 3
  },
  {
    "case_index": 59,
    "case_number": 59,
    "case_action": false,
    "case_description": false,
    "case_image": false
  },
  {
    "case_index": 60,
    "case_number": 60,
    "case_action": "Passe un tour.",
    "case_description": false,
    "case_image": false,
    "case_malus_bonus_type": "cooldown",
    "case_malus_bonus": 2
  },
  {
    "case_index": 61,
    "case_number": 61,
    "case_action": false,
    "case_description": "🏆 Vous êtes arrivé à la fin ! Bravo !",
    "case_image": false
  }
]